<?xml version="1.0" encoding="utf-8"?>
<!-- Generator: Adobe Illustrator 15.1.0, SVG Export Plug-In . SVG Version: 6.00 Build 0)  -->
<!DOCTYPE svg PUBLIC "-//W3C//DTD SVG 1.1//EN" "http://www.w3.org/Graphics/SVG/1.1/DTD/svg11.dtd">
<svg version="1.1" id="Layer_1" xmlns="http://www.w3.org/2000/svg" xmlns:xlink="http://www.w3.org/1999/xlink" x="0px" y="0px"
	 width="40px" height="40px" viewBox="0 0 40 40" enable-background="new 0 0 40 40" xml:space="preserve">
<path fill="#808181" d="M35.419,2.671c-3.048-1.76-7.249-1.833-10.961-0.193c-3.435,1.518-5.912,4.863-7.375,7.378
	c-0.659-0.161-1.364,0.151-1.67,0.79c-0.292,0.609-0.122,1.317,0.364,1.737c-0.133,0.298-0.215,0.498-0.246,0.578L8.422,28.575
	c-0.717-0.329-1.571-0.034-1.924,0.675c-0.36,0.729-0.063,1.608,0.661,1.968l0.048,0.024l-1.598,3.517H1.633
	c-0.81,0-1.469,0.658-1.469,1.468c0,0.813,0.659,1.469,1.469,1.469H8.97c0.81,0,1.468-0.656,1.468-1.469
	c0-0.81-0.659-1.468-1.468-1.468H8.833l1.017-2.236c0.135,0.041,0.271,0.068,0.407,0.068c0.538,0,1.058-0.299,1.315-0.816
	c0.333-0.676,0.097-1.481-0.523-1.881l7.368-16.183c0.198,0.093,0.404,0.138,0.612,0.138c0.546,0,1.071-0.307,1.323-0.833
	c0.334-0.701,0.064-1.529-0.603-1.907c1.255-2.114,3.266-4.784,5.896-5.947c2.827-1.25,6.087-1.229,8.306,0.051
	c1.631,0.941,2.568,2.44,2.787,4.451c0.408,3.771,0.063,6.301-1.028,7.517c-0.102,0.113-0.211,0.208-0.325,0.299v3.286
	c0.902-0.306,1.772-0.804,2.509-1.625c1.697-1.889,2.271-5.093,1.763-9.792C39.341,6.436,37.835,4.066,35.419,2.671"/>
<path fill="#EC252A" d="M31.238,27.422c0.958,0,1.863,0.216,2.68,0.601v-6.915V18.13v-1.713c0-0.812,0.075-0.733-0.734-0.733h-2.875
	c-0.811,0-8.987,0.67-11.146,11.351l-1.387,8.825c0,0.811,0.657,1.834,1.469,1.834h6.962c-0.838-1.079-1.342-2.428-1.342-3.898
	C24.864,30.28,27.726,27.422,31.238,27.422"/>
<path fill="#808181" d="M34.651,30.277c-0.226-0.217-0.471-0.415-0.733-0.588c-0.771-0.504-1.691-0.8-2.68-0.8
	c-2.707,0-4.907,2.201-4.907,4.907c0,1.588,0.764,3.001,1.939,3.898c0.408,0.312,0.867,0.561,1.363,0.733
	c0.505,0.175,1.044,0.273,1.604,0.273c0.564,0,1.103-0.099,1.606-0.273c0.52-0.181,1-0.445,1.424-0.778
	c0.398-0.316,0.751-0.688,1.036-1.107c0.53-0.787,0.842-1.73,0.842-2.746c0-0.963-0.281-1.858-0.76-2.614
	C35.176,30.854,34.931,30.549,34.651,30.277 M31.238,31.334c1.361,0,2.462,1.104,2.462,2.463c0,1.357-1.101,2.458-2.462,2.458
	c-1.357,0-2.46-1.101-2.46-2.458C28.778,32.438,29.879,31.334,31.238,31.334"/>
</svg>
