<?xml version="1.0" encoding="iso-8859-1"?>
<svg id="list-add" data-name="list-add" xmlns="http://www.w3.org/2000/svg" viewBox="0 0 48 48">
	<defs
			id="defs3732">
		<style
				id="style3730">.cls-1{fill:#231f20;}</style>
	</defs>
	<title>list-add</title>
	<polygon
			class="cls-1"
			points="43.44,1.17 41.44,1.17 41.44,5.05 37.56,5.05 37.56,7.05 41.44,7.05 41.44,10.94 43.44,10.94 43.44,7.05 47.33,7.05 47.33,5.05 43.44,5.05 "
			id="polygon3736"
			style="fill:#231f20"
			transform="translate(-0.88073394,-1.1323722)" />
	<path
			class="cls-1"
			d="M 34,48 A 1,1 0 0 1 33.29,47.71 L 30,44.41 26.71,47.7 a 1,1 0 0 1 -1.41,0 L 22,44.41 18.71,47.7 a 1,1 0 0 1 -1.41,0 L 14,44.41 10.71,47.7 a 1,1 0 0 1 -1.41,0 L 6,44.41 2.71,47.71 A 1,1 0 0 1 1,47 V 1 A 1,1 0 0 1 2.71,0.29 L 6,3.59 9.29,0.29 a 1,1 0 0 1 1.41,0 l 3.3,3.3 3.29,-3.3 a 1,1 0 0 1 1.41,0 l 3.3,3.3 3.29,-3.3 a 1,1 0 0 1 1.41,0 l 3.3,3.3 3.29,-3.3 A 1,1 0 0 1 35,1 v 46 a 1,1 0 0 1 -1,1 z M 22,42 a 1,1 0 0 1 0.71,0.29 l 3.29,3.3 3.29,-3.29 a 1,1 0 0 1 1.41,0 L 33,44.59 V 3.41 l -2.29,2.3 a 1,1 0 0 1 -1.41,0 L 26,2.41 22.71,5.71 a 1,1 0 0 1 -1.41,0 L 18,2.41 14.71,5.71 a 1,1 0 0 1 -1.41,0 L 10,2.41 6.71,5.71 a 1,1 0 0 1 -1.41,0 L 3,3.41 V 44.59 L 5.29,42.3 a 1,1 0 0 1 1.41,0 l 3.3,3.29 3.29,-3.29 a 1,1 0 0 1 1.41,0 L 18,45.59 21.29,42.3 A 1,1 0 0 1 22,42 Z"
			id="path3738"
			style="fill:#231f20" />
	<path
			class="cls-1"
			d="M 20,14 H 8 a 1,1 0 0 1 0,-2 h 12 a 1,1 0 0 1 0,2 z"
			id="path3740"
			style="fill:#231f20" />
	<path
			class="cls-1"
			d="M 16,20 H 8 a 1,1 0 0 1 0,-2 h 8 a 1,1 0 0 1 0,2 z"
			id="path3742"
			style="fill:#231f20" />
	<path
			class="cls-1"
			d="M 18,26 H 8 a 1,1 0 0 1 0,-2 h 10 a 1,1 0 0 1 0,2 z"
			id="path3744"
			style="fill:#231f20" />
	<path
			class="cls-1"
			d="M 14,32 H 8 a 1,1 0 0 1 0,-2 h 6 a 1,1 0 0 1 0,2 z"
			id="path3746"
			style="fill:#231f20" />
	<path
			class="cls-1"
			d="m 28,14 h -2 a 1,1 0 0 1 0,-2 h 2 a 1,1 0 0 1 0,2 z"
			id="path3748"
			style="fill:#231f20" />
	<path
			class="cls-1"
			d="m 28,20 h -2 a 1,1 0 0 1 0,-2 h 2 a 1,1 0 0 1 0,2 z"
			id="path3750"
			style="fill:#231f20" />
	<path
			class="cls-1"
			d="m 28,26 h -2 a 1,1 0 0 1 0,-2 h 2 a 1,1 0 0 1 0,2 z"
			id="path3752"
			style="fill:#231f20" />
	<path
			class="cls-1"
			d="m 28,32 h -2 a 1,1 0 0 1 0,-2 h 2 a 1,1 0 0 1 0,2 z"
			id="path3754"
			style="fill:#231f20" />
</svg>
