<?xml version="1.0" encoding="UTF-8" standalone="no"?>
<svg id="arrow-left" data-name="arrow-left" xmlns="http://www.w3.org/2000/svg" viewBox="0 0 48 48" width="45px" height="45px">
	<title>arrow-left</title>
	<polygon points="24.17,17.27 12.79,28.93 14.54,30.73 24.24,20.79 33.48,30.26 35.21,28.48 24.63,17.64 24.21,17.31 " id="polygon4" transform="rotate(-90,24,24)" />
</svg>
