<?xml version="1.0" encoding="UTF-8" standalone="no"?>
<!-- Generator: Adobe Illustrator 22.0.1, SVG Export Plug-In . SVG Version: 6.00 Build 0)  -->

<svg
   xmlns:dc="http://purl.org/dc/elements/1.1/"
   xmlns:cc="http://creativecommons.org/ns#"
   xmlns:rdf="http://www.w3.org/1999/02/22-rdf-syntax-ns#"
   xmlns:svg="http://www.w3.org/2000/svg"
   xmlns="http://www.w3.org/2000/svg"
   xmlns:sodipodi="http://sodipodi.sourceforge.net/DTD/sodipodi-0.dtd"
   xmlns:inkscape="http://www.inkscape.org/namespaces/inkscape"
   version="1.1"
   id="Layer_1"
   x="0px"
   y="0px"
   viewBox="0 0 1500 900.10001"
   xml:space="preserve"
   sodipodi:docname="delivery.svg"
   width="1500"
   height="900.10004"
   inkscape:version="0.92.2 (5c3e80d, 2017-08-06)"><metadata
     id="metadata1414"><rdf:RDF><cc:Work
         rdf:about=""><dc:format>image/svg+xml</dc:format><dc:type
           rdf:resource="http://purl.org/dc/dcmitype/StillImage" /><dc:title></dc:title></cc:Work></rdf:RDF></metadata><defs
     id="defs1412" /><sodipodi:namedview
     pagecolor="#ffffff"
     bordercolor="#666666"
     borderopacity="1"
     objecttolerance="10"
     gridtolerance="10"
     guidetolerance="10"
     inkscape:pageopacity="0"
     inkscape:pageshadow="2"
     inkscape:window-width="1920"
     inkscape:window-height="1000"
     id="namedview1410"
     showgrid="false"
     inkscape:zoom="0.40374923"
     inkscape:cx="36.749002"
     inkscape:cy="243.52523"
     inkscape:window-x="-11"
     inkscape:window-y="-11"
     inkscape:window-maximized="1"
     inkscape:current-layer="Layer_1" /><style
     type="text/css"
     id="style1391">
	.st0{fill:#7E8081;}
	.st1{fill:#C91C1E;}
</style><g
     id="g1407"
     transform="matrix(12.547587,0,0,13.401757,-802.01316,-675.68823)"><path
       class="st0"
       d="m 70.8,90.4 h -3.4 c -0.6,0 -1.3,0.5 -1.5,1.1 l -1.3,4.8 c -0.2,0.6 0.2,1.1 0.9,1.1 h 3.3 c 0.6,0 1.3,-0.5 1.5,-1.1 l 1.3,-4.8 c 0.2,-0.6 -0.2,-1.1 -0.8,-1.1 z"
       id="path1393"
       inkscape:connector-curvature="0"
       style="fill:#7e8081" /><path
       class="st0"
       d="m 74.8,76.2 h -7.3 c -0.6,0 -1.3,0.5 -1.5,1.1 l -1.5,4.8 c -0.2,0.6 0.2,1.1 0.8,1.1 h 7.4 c 0.6,0 1.3,-0.5 1.5,-1.1 l 1.4,-4.8 c 0.2,-0.5 -0.2,-1.1 -0.8,-1.1 z"
       id="path1395"
       inkscape:connector-curvature="0"
       style="fill:#7e8081" /><path
       class="st0"
       d="m 65.4,69.2 h 11.4 c 0.6,0 1.3,-0.5 1.5,-1.1 l 1.3,-4.8 c 0.2,-0.6 -0.2,-1.1 -0.9,-1.1 H 67.3 c -0.6,0 -1.3,0.5 -1.5,1.1 L 64.5,68 c -0.1,0.7 0.3,1.2 0.9,1.2 z"
       id="path1397"
       inkscape:connector-curvature="0"
       style="fill:#7e8081" /><path
       class="st0"
       d="m 158.8,99.9 c -5,0 -9.1,3.9 -9.1,8.7 0,4.8 4.1,8.7 9.1,8.7 5,0 9.1,-3.9 9.1,-8.7 0,-4.8 -4.1,-8.7 -9.1,-8.7 z"
       id="path1399"
       inkscape:connector-curvature="0"
       style="fill:#7e8081" /><path
       class="st0"
       d="m 98.2,99.9 c -5,0 -9.1,3.9 -9.1,8.7 0,4.8 4.1,8.7 9.1,8.7 5,0 9.1,-3.9 9.1,-8.7 0,-4.8 -4.1,-8.7 -9.1,-8.7 z"
       id="path1401"
       inkscape:connector-curvature="0"
       style="fill:#7e8081" /><path
       class="st1"
       d="m 148.8,55.9 c 0.5,-2.5 -1.2,-4.6 -3.8,-4.6 H 90.2 c -2.6,0 -5.1,2.1 -5.7,4.6 l -9.9,48.2 c -0.5,2.5 1.2,4.6 3.8,4.6 h 4.1 3 c 0,-6.8 5.7,-12.3 12.6,-12.3 7,0 12.6,5.5 12.6,12.3 h 22.5 4.7 l 2.3,-11.1 v 0 z"
       id="path1403"
       inkscape:connector-curvature="0"
       style="fill:#c91c1e" /><path
       class="st1"
       d="m 181.5,91.4 -9.9,-23.9 c -0.5,-1.2 -2,-2.2 -3.3,-2.2 h -15.9 c -1.3,0 -2.6,1 -2.8,2.3 l -7.7,38.7 c 0,0.1 0,0.2 0,0.3 l -0.4,2 h 2.3 2.3 c 0,-6.8 5.7,-12.3 12.6,-12.3 7,0 12.6,5.5 12.6,12.3 h 5.4 c 1.3,0 2.6,-1 2.8,-2.3 l 2.2,-10.5 c 0.5,-1.1 0.3,-3.2 -0.2,-4.4 z M 173.9,85.6 153.4,80 c -0.6,-0.2 -1,-0.8 -0.9,-1.5 l 1.3,-7.3 c 0.1,-0.6 0.7,-1.2 1.4,-1.2 h 12.2 c 0.6,0 1.4,0.5 1.6,1.1 l 5.6,13.7 c 0.3,0.7 0,1 -0.7,0.8 z"
       id="path1405"
       inkscape:connector-curvature="0"
       style="fill:#c91c1e" /></g></svg>