<?xml version="1.0" encoding="iso-8859-1"?>
<svg id="list" data-name="list" xmlns="http://www.w3.org/2000/svg" viewBox="0 0 48 48">
	<title>list</title>
	<path class="cls-1" d="M40,48a1,1,0,0,1-.71-.29L36,44.41l-3.29,3.29a1,1,0,0,1-1.41,0L28,44.41l-3.29,3.29a1,1,0,0,1-1.41,0L20,44.41l-3.29,3.29a1,1,0,0,1-1.41,0L12,44.41,8.71,47.71A1,1,0,0,1,7,47V1A1,1,0,0,1,8.71.29L12,3.59,15.29.29a1,1,0,0,1,1.41,0L20,3.59,23.29.29a1,1,0,0,1,1.41,0L28,3.59,31.29.29a1,1,0,0,1,1.41,0L36,3.59,39.29.29A1,1,0,0,1,41,1V47a1,1,0,0,1-1,1ZM28,42a1,1,0,0,1,.71.29L32,45.59l3.29-3.29a1,1,0,0,1,1.41,0L39,44.59V3.41L36.71,5.71a1,1,0,0,1-1.41,0L32,2.41,28.71,5.71a1,1,0,0,1-1.41,0L24,2.41,20.71,5.71a1,1,0,0,1-1.41,0L16,2.41,12.71,5.71a1,1,0,0,1-1.41,0L9,3.41V44.59l2.29-2.29a1,1,0,0,1,1.41,0L16,45.59l3.29-3.29a1,1,0,0,1,1.41,0L24,45.59l3.29-3.29A1,1,0,0,1,28,42Z" />
	<path class="cls-1" d="M26,14H14a1,1,0,0,1,0-2H26a1,1,0,0,1,0,2Z" />
	<path class="cls-1" d="M22,20H14a1,1,0,0,1,0-2h8a1,1,0,0,1,0,2Z" />
	<path class="cls-1" d="M24,26H14a1,1,0,0,1,0-2H24a1,1,0,0,1,0,2Z" />
	<path class="cls-1" d="M20,32H14a1,1,0,0,1,0-2h6a1,1,0,0,1,0,2Z" />
	<path class="cls-1" d="M34,14H32a1,1,0,0,1,0-2h2a1,1,0,0,1,0,2Z" />
	<path class="cls-1" d="M34,20H32a1,1,0,0,1,0-2h2a1,1,0,0,1,0,2Z" />
	<path class="cls-1" d="M34,26H32a1,1,0,0,1,0-2h2a1,1,0,0,1,0,2Z" />
	<path class="cls-1" d="M34,32H32a1,1,0,0,1,0-2h2a1,1,0,0,1,0,2Z" />
</svg>
