<?xml version="1.0" encoding="iso-8859-1"?>
<svg id="secure" data-name="secure" xmlns="http://www.w3.org/2000/svg" viewBox="0 0 48 48">
	<title>secure</title>
	<path class="cls-1" d="M36,18V12a12,12,0,0,0-24,0v6H6V48H42V18ZM14,12a10,10,0,0,1,20,0v6H14ZM40,46H8V20H40Z" />
	<path class="cls-1" d="M29.17,25.29a.77.77,0,1,0,0-1.54c-4.33,0-10,.84-10.72,7.71H16.83a.77.77,0,0,0,0,1.54h1.54a14.59,14.59,0,0,0,.08,1.54H16.83a.77.77,0,0,0,0,1.54h1.9c1.37,5.45,6.46,6.17,10.44,6.17a.77.77,0,1,0,0-1.54c-5.08,0-7.87-1.42-8.85-4.63h5a.77.77,0,0,0,0-1.54H20A12.89,12.89,0,0,1,19.91,33h6.94a.77.77,0,0,0,0-1.54H20C20.52,27.16,23.34,25.29,29.17,25.29Z" />
</svg>
