{
	"main": {
		"bundle": [
			"./web/webroot/WEB-INF/_ui-src/shared/js/generatedVariables.js",
			"./web/webroot/WEB-INF/_ui-src/shared/js/analyticsmediator.js",
			"./web/webroot/WEB-INF/_ui-src/responsive/lib/ybase-0.1.0/js/jquery-2.1.1.min.js",
			"./web/webroot/WEB-INF/_ui-src/responsive/lib/ybase-0.1.0/js/jquery-ui-1.11.2.min.js",
			"./web/webroot/WEB-INF/_ui-src/responsive/lib/bootstrap-3.3.7/dist/js/bootstrap.min.js",
			"./web/webroot/WEB-INF/_ui-src/responsive/lib/ybase-0.1.0/js/enquire.min.js",
			"./web/webroot/WEB-INF/_ui-src/responsive/lib/ybase-0.1.0/js/Imager.min.js",
			"./web/webroot/WEB-INF/_ui-src/responsive/lib/ybase-0.1.0/js/jquery.*.js",
			"./web/webroot/WEB-INF/_ui-src/responsive/lib/ybase-0.1.0/js/owl.carousel.custom.js",
			"./web/webroot/WEB-INF/_ui-src/responsive/lib/ybase-0.1.0/js/acc.address.js",
			"./web/webroot/WEB-INF/_ui-src/responsive/lib/ybase-0.1.0/js/acc.autocomplete.js",
			"./web/webroot/WEB-INF/_ui-src/responsive/lib/ybase-0.1.0/js/acc.carousel.js",
			"./web/webroot/WEB-INF/_ui-src/responsive/lib/ybase-0.1.0/js/acc.cart.js",
			"./web/webroot/WEB-INF/_ui-src/responsive/lib/ybase-0.1.0/js/acc.checkout.js",
			"./web/webroot/WEB-INF/_ui-src/responsive/lib/ybase-0.1.0/js/acc.checkoutaddress.js",
			"./web/webroot/WEB-INF/_ui-src/responsive/lib/ybase-0.1.0/js/acc.checkoutsteps.js",
			"./web/webroot/WEB-INF/_ui-src/responsive/lib/ybase-0.1.0/js/acc.cms.js",
			"./web/webroot/WEB-INF/_ui-src/responsive/lib/ybase-0.1.0/js/acc.colorbox.js",
			"./web/webroot/WEB-INF/_ui-src/responsive/lib/ybase-0.1.0/js/acc.common.js",
			"./web/webroot/WEB-INF/_ui-src/responsive/lib/ybase-0.1.0/js/acc.forgottenpassword.js",
			"./web/webroot/WEB-INF/_ui-src/responsive/lib/ybase-0.1.0/js/acc.global.js",
			"./web/webroot/WEB-INF/_ui-src/responsive/lib/ybase-0.1.0/js/acc.hopdebug.js",
			"./web/webroot/WEB-INF/_ui-src/responsive/lib/ybase-0.1.0/js/acc.imagegallery.js",
			"./web/webroot/WEB-INF/_ui-src/responsive/lib/ybase-0.1.0/js/acc.langcurrencyselector.js",
			"./web/webroot/WEB-INF/_ui-src/responsive/lib/ybase-0.1.0/js/acc.order.js",
			"./web/webroot/WEB-INF/_ui-src/responsive/lib/ybase-0.1.0/js/acc.payment.js",
			"./web/webroot/WEB-INF/_ui-src/responsive/lib/ybase-0.1.0/js/acc.paymentDetails.js",
			"./web/webroot/WEB-INF/_ui-src/responsive/lib/ybase-0.1.0/js/acc.pickupinstore.js",
			"./web/webroot/WEB-INF/_ui-src/responsive/lib/ybase-0.1.0/js/acc.quickview.js",
			"./web/webroot/WEB-INF/_ui-src/responsive/lib/ybase-0.1.0/js/acc.ratingstars.js",
			"./web/webroot/WEB-INF/_ui-src/responsive/lib/ybase-0.1.0/js/acc.tabs.js",
			"./web/webroot/WEB-INF/_ui-src/responsive/lib/ybase-0.1.0/js/acc.termsandconditions.js",
			"./web/webroot/WEB-INF/_ui-src/responsive/lib/ybase-0.1.0/js/acc.track.js",
			"./web/webroot/WEB-INF/_ui-src/responsive/lib/ybase-0.1.0/js/acc.futurelink.js",
			"./web/webroot/WEB-INF/_ui-src/responsive/lib/ybase-0.1.0/js/acc.productorderform.js",
			"./web/webroot/WEB-INF/_ui-src/responsive/lib/ybase-0.1.0/js/acc.savedcarts.js",
			"./web/webroot/WEB-INF/_ui-src/responsive/lib/ybase-0.1.0/js/acc.multidgrid.js",
			"./web/webroot/WEB-INF/_ui-src/responsive/lib/ybase-0.1.0/js/acc.quickorder.js",
			"./web/webroot/WEB-INF/_ui-src/responsive/lib/ybase-0.1.0/js/acc.quote.js",
			"./web/webroot/WEB-INF/_ui-src/responsive/lib/ybase-0.1.0/js/acc.csv-import.js",
			"./web/webroot/WEB-INF/_ui-src/responsive/lib/slick-1.6.0/slick/slick.js",
			"./web/webroot/WEB-INF/_ui-src/responsive/lib/dataTables-1.10.15/js/jquery.dataTables.min.js",
			"./web/webroot/WEB-INF/_ui-src/responsive/lib/angle-view-1-3/jquery.angle.js",
			"./web/webroot/WEB-INF/_ui-src/responsive/lib/zoom-1-7-20/jquery.zoom.min.js",
			"./web/webroot/WEB-INF/_ui-src/responsive/themes/common/js/jquery.*.js",
			"./web/webroot/WEB-INF/_ui-src/responsive/themes/common/js/acc.*.js",
			"./web/webroot/WEB-INF/_ui-src/responsive/lib/ybase-0.1.0/js/_autoload.js",
			"./web/webroot/WEB-INF/_ui-src/responsive/lib/ybase-0.1.0/js/cms/*.js",
			"./web/webroot/WEB-INF/_ui-src/responsive/themes/common/js/scs.*.js",
			"./web/webroot/WEB-INF/_ui-src/responsive/themes/common/js/*.conf.js"
		],
		"jshint": {
			"ignore": [
				"**/lib/**/*.js"
			]
		}
	}
}
