<?xml version="1.0" encoding="iso-8859-1"?>
<svg id="arrow-down" data-name="arrow-down" xmlns="http://www.w3.org/2000/svg" viewBox="0 0 48 48" version="1.1" width="45px" height="45px">
	<title>arrow-down</title>
	<polygon points="24.21,17.31 24.17,17.27 12.79,28.93 14.54,30.73 24.24,20.79 33.48,30.26 35.21,28.48 24.63,17.64 24.21,17.31 " id="polygon4" transform="rotate(180,24,24)" />
</svg>
