<?xml version="1.0" encoding="iso-8859-1"?>
<svg id="burger-white" data-name="burger-white" xmlns="http://www.w3.org/2000/svg" viewBox="0 0 48 48" fill="#FFF">
	<title>burger-white</title>
	<rect class="cls-1" x="3.98" y="5.47" width="40.04" height="3" />
	<rect class="cls-1" x="3.98" y="22.47" width="40.04" height="3" />
	<rect class="cls-1" x="3.98" y="39.48" width="40.04" height="3" />
</svg>
