<?xml version="1.0" encoding="iso-8859-1"?>
<svg id="cart-white" data-name="cart-white" xmlns="http://www.w3.org/2000/svg" viewBox="0 0 48 48" fill="#FFF">
	<title>cart-white</title>
	<path class="cls-1" d="M21,20a1,1,0,0,1-1-1V5a1,1,0,0,1,2,0V19A1,1,0,0,1,21,20Z" />
	<path class="cls-1" d="M21,20a1,1,0,0,1-.71-.29l-6-6a1,1,0,0,1,1.41-1.41L21,17.59l5.29-5.29a1,1,0,0,1,1.41,1.41l-6,6A1,1,0,0,1,21,20Z" />
	<path class="cls-1" d="M10,45a4,4,0,1,1,4-4A4,4,0,0,1,10,45Zm0-6a2,2,0,1,0,2,2A2,2,0,0,0,10,39Z" />
	<path class="cls-1" d="M32,45a4,4,0,1,1,4-4A4,4,0,0,1,32,45Zm0-6a2,2,0,1,0,2,2A2,2,0,0,0,32,39Z" />
	<path class="cls-1" d="M32,39H10a1,1,0,0,1,0-2H31.21L39,3.77A1,1,0,0,1,40,3h7a1,1,0,0,1,0,2H40.79L33,38.23A1,1,0,0,1,32,39Z" />
	<path class="cls-1" d="M32.94,35H7a1,1,0,0,1-.95-.68l-6-18a1,1,0,1,1,1.9-.63L7.72,33H32.94a1,1,0,0,1,0,2Z" />
</svg>
