<?xml version="1.0" encoding="iso-8859-1"?>
<svg id="check-circle" data-name="check-circle" xmlns="http://www.w3.org/2000/svg" viewBox="0 0 48 48">
	<title>check-circle</title>
	<path class="cls-1" d="M33.32,16.27,19,29.61l-4.32-4.32a1,1,0,0,0-1.41,1.41l5,5a1,1,0,0,0,1.39,0l15-14a1,1,0,1,0-1.37-1.46Z" />
	<path class="cls-1" d="M24,0A24,24,0,1,0,48,24,24,24,0,0,0,24,0Zm0,46A22,22,0,1,1,46,24,22,22,0,0,1,24,46Z" />
</svg>
