<?xml version="1.0" encoding="iso-8859-1"?>
<svg id="flag-en" xmlns="http://www.w3.org/2000/svg" xmlns:xlink="http://www.w3.org/1999/xlink" viewBox="0 0 640 480" width="45" height="45">
	<defs>
		<style>
		.cls-1 {
			fill: none;
		}

		.cls-2 {
			clip-path: url(#clip-path);
		}

		.cls-3 {
			fill: #006;
		}

		.cls-4 {
			fill: #fff;
		}

		.cls-5 {
			fill: #c00;
		}

		</style>
		<clipPath id="clip-path">
			<rect class="cls-1" width="640" height="480" />
		</clipPath>
	</defs>
	<title>flag-en</title>
	<g class="cls-2">
		<g id="flag">
			<g id="g578">
				<rect id="rect124" class="cls-3" x="-160" width="960.02" height="480.01" />
				<g id="g584">
					<path id="path146" class="cls-4" d="M-160,0V53.67L692.69,480H800V426.35L-52.67,0H-160ZM800,0V53.67L-52.67,480H-160V426.34L692.69,0Z" />
					<path id="path136" class="cls-4" d="M240,0V480H400V0ZM-160,160V320H800V160Z" />
					<path id="path141" class="cls-5" d="M-160,192v96H800V192ZM272,0V480h96V0Z" />
					<path id="path150" class="cls-5" d="M-160,480,160,320h71.55l-320,160Zm0-480L160,160H88.45L-160,35.78ZM408.46,160l320-160H800L480,160ZM800,480,480,320h71.55L800,444.23Z" />
				</g>
			</g>
		</g>
	</g>
</svg>
