<?xml version="1.0" encoding="iso-8859-1"?>
<svg id="garbage-carnation" data-name="garbage-carnation" xmlns="http://www.w3.org/2000/svg" viewBox="0 0 48 48" fill="#ef5664">
	<title>garbage</title>
	<path class="cls-1" d="M47,6H34V1a1,1,0,0,0-1-1H15a1,1,0,0,0-1,1V6H1A1,1,0,0,0,1,8H6V47a1,1,0,0,0,1,1H41a1,1,0,0,0,1-1V8h5a1,1,0,0,0,0-2ZM16,2H32V6H16ZM40,46H8V8H40Z" />
	<path class="cls-1" d="M15,14a1,1,0,0,0-1,1V38a1,1,0,0,0,2,0V15A1,1,0,0,0,15,14Z" />
	<path class="cls-1" d="M24,14a1,1,0,0,0-1,1V38a1,1,0,0,0,2,0V15A1,1,0,0,0,24,14Z" />
	<path class="cls-1" d="M32,14V37a1,1,0,0,0,2,0V14a1,1,0,0,0-2,0Z" />
</svg>
