<?xml version="1.0" encoding="iso-8859-1"?>
<svg id="minus" data-name="minus" xmlns="http://www.w3.org/2000/svg" viewBox="0 0 48 48" fill="#fff">
	<title>minus</title>
	<rect class="cls-1" x="8.76" y="23.08" width="30.49" height="1.84" />
</svg>
